{
  "086": "086",
  "096": "096",
  "097": "097",
  "098": "098",
  "0162": "032",
  "0163": "033",
  "0164": "034",
  "0165": "035",
  "0166": "036",
  "0167": "037",
  "0168": "038",
  "0169": "039",
  "088": "088",
  "091": "091",
  "094": "094",
  "0123": "083",
  "0124": "084",
  "0125": "085",
  "0127": "081",
  "0129": "082",
  "089": "089",
  "090": "090",
  "093": "093",
  "0120": "070",
  "0121": "079",
  "0122": "077",
  "0126": "076",
  "0128": "078",
  "092": "092",
  "056": "056",
  "058": "058",
  "099": "099",
  "0199": "059",
  "087": "087"
}